{
  "short_name": "EasyAuto",
  "name": "EasyAuto - Proceso de acumulacion automatica",
  "icons": [
    {
      "src": "logo.png",
      "type": "image/png",
      "sizes": "512x512"
    }
  ],
  "start_url": "/",
  "scope": "/",
  "display": "standalone",
  "theme_color": "#000000",
  "background_color": "#ffffff"
}
